Statistical Programming Paradigms and Workflows (BSPH 140.777) - Retrieving data from APIs with httr
…
$<NA>
NULL

$<NA>
NULL

Next, let’s perform the same request we did above about my 85 repositories, but instead of reading in the JSON file from the web, we use an authenticated GET() response:

response <- GET('https://api.github.com/users/stephaniehicks/repos?page=1&per_page=1000',
                authenticate('stephaniehicks', github_key))
repo_details <- as_tibble(fromJSON(httr::content(response, as = 'text')))
repo_details

# A tibble: 90 × 79
       id node_id name  full_name private owner$login html_url description fork 
    <int> <chr>   <chr> <chr>     <lgl>   <chr>       <chr>    <chr>       <lgl>
 1 1.60e8 MDEwOl… 2018… stephani… FALSE   stephanieh… https:/… <NA>        FALSE
 2 1.33e8 MDEwOl… advd… stephani… FALSE   stephanieh… https:/… <NA>        TRUE 
 3 6.48e8 R_kgDO… atla… stephani… FALSE   stephanieh… https:/… Repo to sh… FALSE
 4 2.26e8 MDEwOl… Awes… stephani… FALSE   stephanieh… https:/… A curated … TRUE 
 5 6.38e7 MDEwOl… awes… stephani… FALSE   stephanieh… https:/… List of so… TRUE 
 6 1.66e7 MDEwOl… Back… stephani… FALSE   stephanieh… https:/… Gene expre… FALSE
 7 2.88e8 MDEwOl… benc… stephani… FALSE   stephanieh… https:/… <NA>        FALSE
 8 1.69e8 MDEwOl… benc… stephani… FALSE   stephanieh… https:/… Benchmarki… FALSE
 9 1.40e8 MDEwOl… benc… stephani… FALSE   stephanieh… https:/… Repository… FALSE
10 1.78e8 MDEwOl… benc… stephani… FALSE   stephanieh… https:/… Data and B… FALSE
# ℹ 80 more rows
# ℹ 87 more variables: owner$id <int>, $node_id <chr>, $avatar_url <chr>,
#   $gravatar_id <chr>, $url <chr>, $html_url <chr>, $followers_url <chr>,
#   $following_url <chr>, $gists_url <chr>, $starred_url <chr>,
#   $subscriptions_url <chr>, $organizations_url <chr>, $repos_url <chr>,
#   $events_url <chr>, $received_events_url <chr>, $type <chr>,
#   $site_admin <lgl>, url <chr>, forks_url <chr>, keys_url <chr>, …
…
Whew! Not as many as I thought.

More about GET

You can use the query argument to specify details about the response.

Let’s look how many open issues there are in the dplyr package in the tidyverse

req <- GET("https://api.github.com/repos/tidyverse/dplyr/issues", 
           query = list(state = "open", per_page = 100, page = 1))
dplyr_details <- as_tibble(fromJSON(httr::content(req, as = 'text')))
dplyr_details

# A tibble: 51 × 30
   url         repository_url labels_url comments_url events_url html_url     id
   <chr>       <chr>          <chr>      <chr>        <chr>      <chr>     <int>
 1 https://ap… https://api.g… https://a… https://api… https://a… https:/… 2.02e9
 2 https://ap… https://api.g… https://a… https://api… https://a… https:/… 2.01e9
 3 https://ap… https://api.g… https://a… https://api… https://a… https:/… 2.00e9
 4 https://ap… https://api.g… https://a… https://api… https://a… https:/… 1.99e9
 5 https://ap… https://api.g… https://a… https://api… https://a… https:/… 1.98e9
 6 https://ap… https://api.g… https://a… https://api… https://a… https:/… 1.98e9
 7 https://ap… https://api.g… https://a… https://api… https://a… https:/… 1.96e9
 8 https://ap… https://api.g… https://a… https://api… https://a… https:/… 1.95e9
 9 https://ap… https://api.g… https://a… https://api… https://a… https:/… 1.94e9
10 https://ap… https://api.g… https://a… https://api… https://a… https:/… 1.92e9
# ℹ 41 more rows
# ℹ 23 more variables: node_id <chr>, number <int>, title <chr>,
#   user <df[,18]>, labels <list>, state <chr>, locked <lgl>,
#   assignee <df[,18]>, assignees <list>, milestone <lgl>, comments <int>,
#   created_at <chr>, updated_at <chr>, closed_at <lgl>,
#   author_association <chr>, active_lock_reason <chr>, body <chr>,
#   reactions <df[,10]>, timeline_url <chr>, performed_via_github_app <lgl>, …
…
